Homework #2
…
      September 11, 2023

Exercise 2.2

Section 4.2.5

Question #1!

library(nycflights13)
library(tidyverse)
library(dplyr)
flights |> filter(arr_delay > 120)

# A tibble: 10,034 × 19
    year month   day dep_time sched_dep_time dep_delay arr_time sched_arr_time
   <int> <int> <int>    <int>          <int>     <dbl>    <int>          <int>
 1  2013     1     1      811            630       101     1047            830
 2  2013     1     1      848           1835       853     1001           1950
 3  2013     1     1      957            733       144     1056            853
 4  2013     1     1     1114            900       134     1447           1222
 5  2013     1     1     1505           1310       115     1638           1431
 6  2013     1     1     1525           1340       105     1831           1626
 7  2013     1     1     1549           1445        64     1912           1656
 8  2013     1     1     1558           1359       119     1718           1515
 9  2013     1     1     1732           1630        62     2028           1825
10  2013     1     1     1803           1620       103     2008           1750
# ℹ 10,024 more rows
# ℹ 11 more variables: arr_delay <dbl>, carrier <chr>, flight <int>,
#   tailnum <chr>, origin <chr>, dest <chr>, air_time <dbl>, distance <dbl>,
#   hour <dbl>, minute <dbl>, time_hour <dttm>

library(nycflights13)
library(tidyverse)
library(dplyr)
flights |> filter(dest == "IAH" | dest == "HOU")

# A tibble: 9,313 × 19
    year month   day dep_time sched_dep_time dep_delay arr_time sched_arr_time
   <int> <int> <int>    <int>          <int>     <dbl>    <int>          <int>
 1  2013     1     1      517            515         2      830            819
 2  2013     1     1      533            529         4      850            830
 3  2013     1     1      623            627        -4      933            932
 4  2013     1     1      728            732        -4     1041           1038
 5  2013     1     1      739            739         0     1104           1038
 6  2013     1     1      908            908         0     1228           1219
 7  2013     1     1     1028           1026         2     1350           1339
 8  2013     1     1     1044           1045        -1     1352           1351
 9  2013     1     1     1114            900       134     1447           1222
10  2013     1     1     1205           1200         5     1503           1505
# ℹ 9,303 more rows
# ℹ 11 more variables: arr_delay <dbl>, carrier <chr>, flight <int>,
#   tailnum <chr>, origin <chr>, dest <chr>, air_time <dbl>, distance <dbl>,
#   hour <dbl>, minute <dbl>, time_hour <dttm>

flights |> filter(carrier == "UA" | carrier == "AA" | carrier == "DL")

# A tibble: 139,504 × 19
    year month   day dep_time sched_dep_time dep_delay arr_time sched_arr_time
   <int> <int> <int>    <int>          <int>     <dbl>    <int>          <int>
 1  2013     1     1      517            515         2      830            819
 2  2013     1     1      533            529         4      850            830
 3  2013     1     1      542            540         2      923            850
 4  2013     1     1      554            600        -6      812            837
 5  2013     1     1      554            558        -4      740            728
 6  2013     1     1      558            600        -2      753            745
 7  2013     1     1      558            600        -2      924            917
 8  2013     1     1      558            600        -2      923            937
 9  2013     1     1      559            600        -1      941            910
10  2013     1     1      559            600        -1      854            902
# ℹ 139,494 more rows
# ℹ 11 more variables: arr_delay <dbl>, carrier <chr>, flight <int>,
#   tailnum <chr>, origin <chr>, dest <chr>, air_time <dbl>, distance <dbl>,
#   hour <dbl>, minute <dbl>, time_hour <dttm>

flights |> filter(month == 7 | month == 8 | month == 9)

# A tibble: 86,326 × 19
    year month   day dep_time sched_dep_time dep_delay arr_time sched_arr_time
   <int> <int> <int>    <int>          <int>     <dbl>    <int>          <int>
 1  2013     7     1        1           2029       212      236           2359
 2  2013     7     1        2           2359         3      344            344
 3  2013     7     1       29           2245       104      151              1
 4  2013     7     1       43           2130       193      322             14
 5  2013     7     1       44           2150       174      300            100
 6  2013     7     1       46           2051       235      304           2358
 7  2013     7     1       48           2001       287      308           2305
 8  2013     7     1       58           2155       183      335             43
 9  2013     7     1      100           2146       194      327             30
10  2013     7     1      100           2245       135      337            135
# ℹ 86,316 more rows
# ℹ 11 more variables: arr_delay <dbl>, carrier <chr>, flight <int>,
#   tailnum <chr>, origin <chr>, dest <chr>, air_time <dbl>, distance <dbl>,
#   hour <dbl>, minute <dbl>, time_hour <dttm>

flights |> filter(dep_delay <= 0 & arr_delay >120)

# A tibble: 29 × 19
    year month   day dep_time sched_dep_time dep_delay arr_time sched_arr_time
   <int> <int> <int>    <int>          <int>     <dbl>    <int>          <int>
 1  2013     1    27     1419           1420        -1     1754           1550
 2  2013    10     7     1350           1350         0     1736           1526
 3  2013    10     7     1357           1359        -2     1858           1654
 4  2013    10    16      657            700        -3     1258           1056
 5  2013    11     1      658            700        -2     1329           1015
 6  2013     3    18     1844           1847        -3       39           2219
 7  2013     4    17     1635           1640        -5     2049           1845
 8  2013     4    18      558            600        -2     1149            850
 9  2013     4    18      655            700        -5     1213            950
10  2013     5    22     1827           1830        -3     2217           2010
# ℹ 19 more rows
# ℹ 11 more variables: arr_delay <dbl>, carrier <chr>, flight <int>,
#   tailnum <chr>, origin <chr>, dest <chr>, air_time <dbl>, distance <dbl>,
#   hour <dbl>, minute <dbl>, time_hour <dttm>

flights |> filter(dep_delay >= 60 & arr_delay <30)

# A tibble: 206 × 19
    year month   day dep_time sched_dep_time dep_delay arr_time sched_arr_time
   <int> <int> <int>    <int>          <int>     <dbl>    <int>          <int>
 1  2013     1     3     1850           1745        65     2148           2120
 2  2013     1     3     1950           1845        65     2228           2227
 3  2013     1     3     2015           1915        60     2135           2111
 4  2013     1     6     1019            900        79     1558           1530
 5  2013     1     7     1543           1430        73     1758           1735
 6  2013     1    11     1020            920        60     1311           1245
 7  2013     1    12     1706           1600        66     1949           1927
 8  2013     1    12     1953           1845        68     2154           2137
 9  2013     1    19     1456           1355        61     1636           1615
10  2013     1    21     1531           1430        61     1843           1815
# ℹ 196 more rows
# ℹ 11 more variables: arr_delay <dbl>, carrier <chr>, flight <int>,
#   tailnum <chr>, origin <chr>, dest <chr>, air_time <dbl>, distance <dbl>,
#   hour <dbl>, minute <dbl>, time_hour <dttm>
Question #2!

flights |> filter(dep_delay == max(dep_delay, na.rm = TRUE))

# A tibble: 1 × 19
   year month   day dep_time sched_dep_time dep_delay arr_time sched_arr_time
  <int> <int> <int>    <int>          <int>     <dbl>    <int>          <int>
1  2013     1     9      641            900      1301     1242           1530
# ℹ 11 more variables: arr_delay <dbl>, carrier <chr>, flight <int>,
#   tailnum <chr>, origin <chr>, dest <chr>, air_time <dbl>, distance <dbl>,
#   hour <dbl>, minute <dbl>, time_hour <dttm>

flights |> arrange(flights, sched_dep_time)

# A tibble: 336,776 × 19
    year month   day dep_time sched_dep_time dep_delay arr_time sched_arr_time
   <int> <int> <int>    <int>          <int>     <dbl>    <int>          <int>
 1  2013     1     1      517            515         2      830            819
 2  2013     1     1      533            529         4      850            830
 3  2013     1     1      542            540         2      923            850
 4  2013     1     1      544            545        -1     1004           1022
 5  2013     1     1      554            558        -4      740            728
 6  2013     1     1      554            600        -6      812            837
 7  2013     1     1      555            600        -5      913            854
 8  2013     1     1      557            600        -3      709            723
 9  2013     1     1      557            600        -3      838            846
10  2013     1     1      558            600        -2      753            745
# ℹ 336,766 more rows
# ℹ 11 more variables: arr_delay <dbl>, carrier <chr>, flight <int>,
#   tailnum <chr>, origin <chr>, dest <chr>, air_time <dbl>, distance <dbl>,
#   hour <dbl>, minute <dbl>, time_hour <dttm>

Question #3!

flights |> arrange(air_time)

# A tibble: 336,776 × 19
    year month   day dep_time sched_dep_time dep_delay arr_time sched_arr_time
   <int> <int> <int>    <int>          <int>     <dbl>    <int>          <int>
 1  2013     1    16     1355           1315        40     1442           1411
 2  2013     4    13      537            527        10      622            628
 3  2013    12     6      922            851        31     1021            954
 4  2013     2     3     2153           2129        24     2247           2224
 5  2013     2     5     1303           1315       -12     1342           1411
 6  2013     2    12     2123           2130        -7     2211           2225
 7  2013     3     2     1450           1500       -10     1547           1608
 8  2013     3     8     2026           1935        51     2131           2056
 9  2013     3    18     1456           1329        87     1533           1426
10  2013     3    19     2226           2145        41     2305           2246
# ℹ 336,766 more rows
# ℹ 11 more variables: arr_delay <dbl>, carrier <chr>, flight <int>,
#   tailnum <chr>, origin <chr>, dest <chr>, air_time <dbl>, distance <dbl>,
#   hour <dbl>, minute <dbl>, time_hour <dttm>

Question #4!

flights |> distinct(month,day)

# A tibble: 365 × 2
   month   day
   <int> <int>
 1     1     1
 2     1     2
 3     1     3
 4     1     4
 5     1     5
 6     1     6
 7     1     7
 8     1     8
 9     1     9
10     1    10
# ℹ 355 more rows

Question #5!

flights |> arrange(distance)

# A tibble: 336,776 × 19
    year month   day dep_time sched_dep_time dep_delay arr_time sched_arr_time
   <int> <int> <int>    <int>          <int>     <dbl>    <int>          <int>
 1  2013     7    27       NA            106        NA       NA            245
 2  2013     1     3     2127           2129        -2     2222           2224
 3  2013     1     4     1240           1200        40     1333           1306
 4  2013     1     4     1829           1615       134     1937           1721
 5  2013     1     4     2128           2129        -1     2218           2224
 6  2013     1     5     1155           1200        -5     1241           1306
 7  2013     1     6     2125           2129        -4     2224           2224
 8  2013     1     7     2124           2129        -5     2212           2224
 9  2013     1     8     2127           2130        -3     2304           2225
10  2013     1     9     2126           2129        -3     2217           2224
# ℹ 336,766 more rows
# ℹ 11 more variables: arr_delay <dbl>, carrier <chr>, flight <int>,
#   tailnum <chr>, origin <chr>, dest <chr>, air_time <dbl>, distance <dbl>,
#   hour <dbl>, minute <dbl>, time_hour <dttm>

flights |> arrange(desc(distance))

# A tibble: 336,776 × 19
    year month   day dep_time sched_dep_time dep_delay arr_time sched_arr_time
   <int> <int> <int>    <int>          <int>     <dbl>    <int>          <int>
 1  2013     1     1      857            900        -3     1516           1530
 2  2013     1     2      909            900         9     1525           1530
 3  2013     1     3      914            900        14     1504           1530
 4  2013     1     4      900            900         0     1516           1530
 5  2013     1     5      858            900        -2     1519           1530
 6  2013     1     6     1019            900        79     1558           1530
 7  2013     1     7     1042            900       102     1620           1530
 8  2013     1     8      901            900         1     1504           1530
 9  2013     1     9      641            900      1301     1242           1530
10  2013     1    10      859            900        -1     1449           1530
# ℹ 336,766 more rows
# ℹ 11 more variables: arr_delay <dbl>, carrier <chr>, flight <int>,
#   tailnum <chr>, origin <chr>, dest <chr>, air_time <dbl>, distance <dbl>,
#   hour <dbl>, minute <dbl>, time_hour <dttm>
…
 num [1:336776] 2 4 2 -1 -6 -4 -5 -3 -3 -2 ...

glimpse(flights$arr_time)

 int [1:336776] 830 850 923 1004 812 740 913 709 838 753 ...

glimpse(flights$arr_delay)

 num [1:336776] 11 20 33 -18 -25 12 19 -14 -8 8 ...

Question #3

flights |> select(arr_delay, arr_delay)

# A tibble: 336,776 × 1
   arr_delay
       <dbl>
 1        11
 2        20
 3        33
 4       -18
 5       -25
 6        12
 7        19
 8       -14
 9        -8
10         8
# ℹ 336,766 more rows

If you specify the name of a variable twice in a “select” command, the requested column will only appear once, despite your inclusion of the variable multiple times.

Question #4

flights |> select(any_of(c("year","month","dep_delay","arr_delay")))

# A tibble: 336,776 × 4
    year month dep_delay arr_delay
   <int> <int>     <dbl>     <dbl>
 1  2013     1         2        11
 2  2013     1         4        20
 3  2013     1         2        33
 4  2013     1        -1       -18
 5  2013     1        -6       -25
 6  2013     1        -4        12
 7  2013     1        -5        19
 8  2013     1        -3       -14
 9  2013     1        -3        -8
10  2013     1        -2         8
# ℹ 336,766 more rows

The any_of() function is another way of using the “select” function to identify desired variables. The any_of() function will identify if the desired variable is present in the data frame and generate the data frame with that variable (if present).

Question #5

flights |> select(contains("TIME"))

# A tibble: 336,776 × 6
   dep_time sched_dep_time arr_time sched_arr_time air_time time_hour          
      <int>          <int>    <int>          <int>    <dbl> <dttm>             
 1      517            515      830            819      227 2013-01-01 05:00:00
 2      533            529      850            830      227 2013-01-01 05:00:00
 3      542            540      923            850      160 2013-01-01 05:00:00
 4      544            545     1004           1022      183 2013-01-01 05:00:00
 5      554            600      812            837      116 2013-01-01 06:00:00
 6      554            558      740            728      150 2013-01-01 05:00:00
 7      555            600      913            854      158 2013-01-01 06:00:00
 8      557            600      709            723       53 2013-01-01 06:00:00
 9      557            600      838            846      140 2013-01-01 06:00:00
10      558            600      753            745      138 2013-01-01 06:00:00
# ℹ 336,766 more rows

The result of running the following code is surprising in that it is not case-sensitive. The select helpers do not appear to be case-sensitive to upper or lower-case variables. However, if we try to run a new version of the code, changing the default of non-case-sensitivity to being case-sensitive, then the function will only work for all-capitalized variables. EX:

flights |> select(contains("TIME"))

# A tibble: 336,776 × 6
   dep_time sched_dep_time arr_time sched_arr_time air_time time_hour          
      <int>          <int>    <int>          <int>    <dbl> <dttm>             
 1      517            515      830            819      227 2013-01-01 05:00:00
 2      533            529      850            830      227 2013-01-01 05:00:00
 3      542            540      923            850      160 2013-01-01 05:00:00
 4      544            545     1004           1022      183 2013-01-01 05:00:00
 5      554            600      812            837      116 2013-01-01 06:00:00
 6      554            558      740            728      150 2013-01-01 05:00:00
 7      555            600      913            854      158 2013-01-01 06:00:00
 8      557            600      709            723       53 2013-01-01 06:00:00
 9      557            600      838            846      140 2013-01-01 06:00:00
10      558            600      753            745      138 2013-01-01 06:00:00
# ℹ 336,766 more rows

flights |> select(contains ("TIME", ignore.case = FALSE))

# A tibble: 336,776 × 0

Question #6

flights |> rename(air_time_min = air_time)

# A tibble: 336,776 × 19
    year month   day dep_time sched_dep_time dep_delay arr_time sched_arr_time
   <int> <int> <int>    <int>          <int>     <dbl>    <int>          <int>
 1  2013     1     1      517            515         2      830            819
 2  2013     1     1      533            529         4      850            830
 3  2013     1     1      542            540         2      923            850
 4  2013     1     1      544            545        -1     1004           1022
 5  2013     1     1      554            600        -6      812            837
 6  2013     1     1      554            558        -4      740            728
 7  2013     1     1      555            600        -5      913            854
 8  2013     1     1      557            600        -3      709            723
 9  2013     1     1      557            600        -3      838            846
10  2013     1     1      558            600        -2      753            745
# ℹ 336,766 more rows
# ℹ 11 more variables: arr_delay <dbl>, carrier <chr>, flight <int>,
#   tailnum <chr>, origin <chr>, dest <chr>, air_time_min <dbl>,
#   distance <dbl>, hour <dbl>, minute <dbl>, time_hour <dttm>

flights |> relocate(air_time)

# A tibble: 336,776 × 19
   air_time  year month   day dep_time sched_dep_time dep_delay arr_time
      <dbl> <int> <int> <int>    <int>          <int>     <dbl>    <int>
 1      227  2013     1     1      517            515         2      830
 2      227  2013     1     1      533            529         4      850
 3      160  2013     1     1      542            540         2      923
 4      183  2013     1     1      544            545        -1     1004
 5      116  2013     1     1      554            600        -6      812
 6      150  2013     1     1      554            558        -4      740
 7      158  2013     1     1      555            600        -5      913
 8       53  2013     1     1      557            600        -3      709
 9      140  2013     1     1      557            600        -3      838
10      138  2013     1     1      558            600        -2      753
# ℹ 336,766 more rows
# ℹ 11 more variables: sched_arr_time <int>, arr_delay <dbl>, carrier <chr>,
#   flight <int>, tailnum <chr>, origin <chr>, dest <chr>, distance <dbl>,
#   hour <dbl>, minute <dbl>, time_hour <dttm>
…
