Homework #6
…
# We get a SE of 0.0152

Having established the sample code, we want to figure out how many people we need to sample in order to have an SE of less than 5% (0.05). To start:

# Create a new tibble for standard error (SE): 
se_tib <- tibble(
  n = c(1:1000), 
  stderr = sqrt((0.52*0.47/n)
))

# Having established the tibble, we can now filter within it to find how many folks we need to poll in order to have an SE of less than 0.05: 
se_tib |> filter(se_tib$stderr <0.05)

# A tibble: 903 × 2
       n stderr
   <int>  <dbl>
 1    98 0.0499
 2    99 0.0497
 3   100 0.0494
 4   101 0.0492
 5   102 0.0489
 6   103 0.0487
 7   104 0.0485
 8   105 0.0482
 9   106 0.0480
10   107 0.0478
# ℹ 893 more rows
…
